<?xml version="1.0" encoding="utf-8"?>
<!-- Generator: Adobe Illustrator 17.0.0, SVG Export Plug-In . SVG Version: 6.00 Build 0)  -->
<!DOCTYPE svg PUBLIC "-//W3C//DTD SVG 1.1//EN" "http://www.w3.org/Graphics/SVG/1.1/DTD/svg11.dtd">
<svg version="1.1" id="Capa_1" xmlns="http://www.w3.org/2000/svg" xmlns:xlink="http://www.w3.org/1999/xlink" x="0px" y="0px"
	 width="130px" height="46.626px" viewBox="0 0 130 46.626" enable-background="new 0 0 130 46.626" xml:space="preserve">
<g>
	<g>
		<path fill="#FFFFFF" d="M53.51-109.761c-0.124-0.162-0.3-0.297-0.527-0.406c-0.227-0.109-0.455-0.163-0.685-0.163
			c-0.137,0-0.273,0.017-0.41,0.051c-0.137,0.034-0.261,0.087-0.373,0.159c-0.112,0.071-0.204,0.165-0.275,0.28
			c-0.072,0.115-0.107,0.253-0.107,0.415c0,0.149,0.031,0.277,0.093,0.382c0.062,0.106,0.148,0.196,0.257,0.27
			c0.109,0.075,0.241,0.14,0.396,0.196c0.155,0.056,0.326,0.112,0.513,0.168c0.211,0.068,0.43,0.146,0.657,0.233
			c0.227,0.087,0.435,0.202,0.625,0.345c0.19,0.143,0.345,0.323,0.466,0.541c0.121,0.218,0.182,0.488,0.182,0.811
			c0,0.354-0.065,0.664-0.196,0.928c-0.131,0.264-0.305,0.483-0.522,0.657c-0.218,0.174-0.473,0.305-0.765,0.392
			c-0.292,0.087-0.6,0.131-0.923,0.131c-0.429,0-0.848-0.079-1.259-0.238c-0.41-0.159-0.746-0.393-1.007-0.704l0.839-0.783
			c0.162,0.224,0.378,0.401,0.648,0.531c0.27,0.131,0.536,0.196,0.797,0.196c0.137,0,0.277-0.017,0.42-0.051
			c0.143-0.034,0.272-0.092,0.387-0.173c0.115-0.081,0.208-0.182,0.28-0.303c0.071-0.121,0.107-0.272,0.107-0.452
			c0-0.174-0.041-0.318-0.121-0.434c-0.081-0.115-0.19-0.214-0.326-0.298c-0.137-0.084-0.298-0.157-0.485-0.219
			c-0.187-0.062-0.382-0.127-0.587-0.196c-0.199-0.062-0.398-0.137-0.597-0.224c-0.199-0.087-0.378-0.202-0.536-0.345
			c-0.158-0.143-0.287-0.318-0.387-0.527c-0.099-0.208-0.149-0.468-0.149-0.778c0-0.336,0.07-0.625,0.21-0.867
			c0.14-0.242,0.323-0.443,0.55-0.601c0.227-0.158,0.485-0.276,0.774-0.354c0.289-0.078,0.583-0.116,0.881-0.116
			c0.336,0,0.676,0.059,1.021,0.177c0.345,0.118,0.645,0.295,0.9,0.531L53.51-109.761z"/>
		<path fill="#FFFFFF" d="M54.74-108.12v-0.895h0.783v-1.296h1.1v1.296h1.119v0.895h-1.119v2.079c0,0.199,0.036,0.364,0.107,0.494
			c0.071,0.131,0.232,0.196,0.48,0.196c0.075,0,0.155-0.008,0.242-0.023c0.087-0.015,0.165-0.039,0.233-0.07l0.037,0.876
			c-0.099,0.037-0.218,0.067-0.354,0.089c-0.137,0.022-0.267,0.033-0.392,0.033c-0.298,0-0.541-0.042-0.727-0.126
			c-0.187-0.084-0.334-0.199-0.443-0.345c-0.109-0.146-0.183-0.314-0.224-0.503c-0.041-0.19-0.061-0.393-0.061-0.611v-2.088H54.74z"
			/>
		<path fill="#FFFFFF" d="M62.637-104.54h-1.063v-0.718h-0.019c-0.099,0.224-0.272,0.421-0.517,0.592
			c-0.246,0.171-0.536,0.256-0.872,0.256c-0.292,0-0.542-0.051-0.751-0.154c-0.208-0.103-0.379-0.238-0.513-0.406
			c-0.134-0.168-0.232-0.36-0.294-0.578c-0.062-0.218-0.093-0.441-0.093-0.671v-2.797h1.119v2.48c0,0.131,0.009,0.267,0.028,0.41
			c0.019,0.143,0.059,0.272,0.121,0.387c0.062,0.115,0.147,0.21,0.256,0.284c0.109,0.075,0.253,0.112,0.433,0.112
			c0.174,0,0.328-0.036,0.461-0.107c0.134-0.071,0.242-0.163,0.326-0.275c0.084-0.112,0.148-0.241,0.191-0.387
			c0.043-0.146,0.065-0.294,0.065-0.443v-2.461h1.119V-104.54z"/>
		<path fill="#FFFFFF" d="M68.529-104.54h-1.063v-0.671h-0.019c-0.155,0.261-0.371,0.46-0.648,0.597
			c-0.277,0.137-0.573,0.205-0.89,0.205c-0.342,0-0.648-0.064-0.918-0.191c-0.27-0.127-0.5-0.298-0.69-0.513
			c-0.19-0.214-0.336-0.466-0.438-0.755c-0.102-0.289-0.154-0.598-0.154-0.928c0-0.329,0.053-0.637,0.158-0.923
			c0.106-0.286,0.255-0.535,0.448-0.746c0.193-0.211,0.423-0.378,0.69-0.499c0.267-0.121,0.559-0.182,0.876-0.182
			c0.205,0,0.388,0.023,0.55,0.07c0.162,0.047,0.303,0.104,0.424,0.172c0.121,0.068,0.225,0.143,0.312,0.224
			c0.087,0.081,0.159,0.159,0.214,0.233h0.028v-3.142h1.119V-104.54z M64.846-106.796c0,0.174,0.026,0.348,0.079,0.522
			c0.053,0.174,0.132,0.329,0.238,0.466c0.106,0.137,0.239,0.249,0.401,0.336c0.162,0.087,0.351,0.131,0.569,0.131
			c0.205,0,0.388-0.042,0.55-0.126c0.162-0.084,0.3-0.194,0.415-0.331c0.115-0.137,0.202-0.291,0.261-0.462
			c0.059-0.171,0.089-0.343,0.089-0.517c0-0.174-0.029-0.348-0.089-0.522c-0.059-0.174-0.146-0.329-0.261-0.466
			c-0.115-0.137-0.253-0.249-0.415-0.336c-0.162-0.087-0.345-0.131-0.55-0.131c-0.218,0-0.407,0.042-0.569,0.126
			c-0.162,0.084-0.295,0.194-0.401,0.331c-0.106,0.137-0.185,0.291-0.238,0.461C64.873-107.142,64.846-106.97,64.846-106.796z"/>
		<path fill="#FFFFFF" d="M74.16-106.721c0,0.05,0,0.1,0,0.149c0,0.05-0.003,0.1-0.009,0.149h-3.403
			c0.012,0.162,0.054,0.309,0.126,0.443c0.071,0.134,0.166,0.249,0.284,0.345c0.118,0.096,0.252,0.173,0.401,0.228
			c0.149,0.056,0.305,0.084,0.466,0.084c0.28,0,0.516-0.051,0.709-0.154s0.351-0.244,0.476-0.424l0.746,0.597
			c-0.441,0.597-1.081,0.895-1.921,0.895c-0.348,0-0.668-0.054-0.96-0.163c-0.292-0.109-0.546-0.262-0.76-0.461
			c-0.214-0.199-0.382-0.443-0.503-0.732s-0.182-0.617-0.182-0.984c0-0.36,0.061-0.688,0.182-0.984
			c0.121-0.295,0.287-0.547,0.499-0.755c0.211-0.208,0.461-0.37,0.751-0.485c0.289-0.115,0.601-0.172,0.937-0.172
			c0.311,0,0.598,0.051,0.862,0.154s0.493,0.255,0.685,0.457c0.193,0.202,0.343,0.454,0.452,0.755
			C74.106-107.478,74.16-107.125,74.16-106.721z M73.042-107.225c0-0.143-0.02-0.28-0.061-0.41c-0.04-0.131-0.104-0.245-0.191-0.345
			c-0.087-0.099-0.197-0.179-0.331-0.238c-0.134-0.059-0.291-0.089-0.471-0.089c-0.336,0-0.62,0.101-0.853,0.303
			c-0.233,0.202-0.362,0.461-0.387,0.778H73.042z"/>
		<path fill="#FFFFFF" d="M75.242-109.015h1.063v0.718h0.019c0.099-0.224,0.272-0.421,0.518-0.592
			c0.245-0.171,0.536-0.256,0.872-0.256c0.292,0,0.542,0.051,0.751,0.154c0.208,0.103,0.379,0.238,0.513,0.406
			c0.134,0.168,0.231,0.361,0.294,0.578c0.062,0.218,0.093,0.441,0.093,0.671v2.797h-1.119v-2.48c0-0.131-0.009-0.267-0.028-0.41
			c-0.019-0.143-0.059-0.272-0.121-0.387c-0.062-0.115-0.148-0.21-0.256-0.284c-0.109-0.075-0.254-0.112-0.434-0.112
			c-0.18,0-0.336,0.036-0.466,0.107c-0.131,0.072-0.238,0.163-0.322,0.275c-0.084,0.112-0.148,0.241-0.191,0.387
			c-0.044,0.146-0.065,0.294-0.065,0.443v2.461h-1.119V-109.015z"/>
		<path fill="#FFFFFF" d="M80.024-108.12v-0.895h0.783v-1.296h1.1v1.296h1.119v0.895h-1.119v2.079c0,0.199,0.036,0.364,0.107,0.494
			c0.071,0.131,0.232,0.196,0.48,0.196c0.075,0,0.155-0.008,0.242-0.023c0.087-0.015,0.165-0.039,0.233-0.07l0.037,0.876
			c-0.099,0.037-0.218,0.067-0.354,0.089c-0.137,0.022-0.267,0.033-0.392,0.033c-0.298,0-0.541-0.042-0.727-0.126
			c-0.187-0.084-0.334-0.199-0.443-0.345c-0.109-0.146-0.183-0.314-0.224-0.503c-0.041-0.19-0.061-0.393-0.061-0.611v-2.088H80.024z
			"/>
		<path fill="#FFFFFF" d="M86.224-111.14h2.294c0.311,0,0.612,0.033,0.904,0.098c0.292,0.065,0.552,0.172,0.779,0.322
			c0.227,0.149,0.409,0.345,0.545,0.587c0.137,0.242,0.205,0.538,0.205,0.886c0,0.479-0.135,0.869-0.406,1.17
			c-0.27,0.302-0.639,0.505-1.105,0.611l1.762,2.928h-1.417l-1.529-2.797h-0.858v2.797h-1.175V-111.14z M88.359-108.297
			c0.168,0,0.336-0.012,0.503-0.037c0.168-0.025,0.318-0.071,0.452-0.14c0.134-0.068,0.244-0.166,0.331-0.294
			c0.087-0.127,0.131-0.29,0.131-0.49c0-0.18-0.041-0.328-0.121-0.443c-0.081-0.115-0.183-0.207-0.308-0.275
			c-0.124-0.068-0.266-0.115-0.424-0.14c-0.158-0.025-0.312-0.037-0.461-0.037h-1.063v1.855H88.359z"/>
		<path fill="#FFFFFF" d="M96.191-106.721c0,0.05,0,0.1,0,0.149c0,0.05-0.003,0.1-0.009,0.149h-3.403
			c0.012,0.162,0.054,0.309,0.126,0.443c0.071,0.134,0.166,0.249,0.284,0.345c0.118,0.096,0.252,0.173,0.401,0.228
			c0.149,0.056,0.305,0.084,0.466,0.084c0.28,0,0.516-0.051,0.709-0.154s0.351-0.244,0.476-0.424l0.746,0.597
			c-0.441,0.597-1.081,0.895-1.921,0.895c-0.348,0-0.668-0.054-0.96-0.163c-0.292-0.109-0.546-0.262-0.76-0.461
			c-0.214-0.199-0.382-0.443-0.503-0.732c-0.121-0.289-0.182-0.617-0.182-0.984c0-0.36,0.061-0.688,0.182-0.984
			c0.121-0.295,0.287-0.547,0.499-0.755c0.211-0.208,0.461-0.37,0.751-0.485c0.289-0.115,0.601-0.172,0.937-0.172
			c0.311,0,0.598,0.051,0.862,0.154c0.264,0.103,0.493,0.255,0.685,0.457c0.193,0.202,0.343,0.454,0.452,0.755
			C96.136-107.478,96.191-107.125,96.191-106.721z M95.072-107.225c0-0.143-0.02-0.28-0.061-0.41
			c-0.04-0.131-0.104-0.245-0.191-0.345c-0.087-0.099-0.197-0.179-0.331-0.238c-0.134-0.059-0.291-0.089-0.471-0.089
			c-0.336,0-0.62,0.101-0.853,0.303c-0.233,0.202-0.362,0.461-0.387,0.778H95.072z"/>
		<path fill="#FFFFFF" d="M99.724-107.821c-0.099-0.131-0.236-0.244-0.41-0.34c-0.174-0.096-0.364-0.145-0.569-0.145
			c-0.18,0-0.345,0.037-0.494,0.112c-0.149,0.075-0.224,0.199-0.224,0.373c0,0.174,0.082,0.297,0.247,0.368
			c0.165,0.071,0.406,0.145,0.723,0.219c0.168,0.037,0.337,0.087,0.508,0.149c0.171,0.062,0.326,0.145,0.466,0.247
			c0.14,0.102,0.253,0.23,0.34,0.382c0.087,0.152,0.131,0.337,0.131,0.555c0,0.273-0.051,0.505-0.154,0.695
			c-0.103,0.19-0.239,0.343-0.41,0.461c-0.171,0.118-0.37,0.204-0.597,0.256c-0.227,0.053-0.461,0.079-0.704,0.079
			c-0.348,0-0.687-0.064-1.016-0.191c-0.33-0.127-0.603-0.309-0.82-0.545l0.737-0.69c0.124,0.162,0.286,0.295,0.485,0.401
			c0.199,0.106,0.42,0.159,0.662,0.159c0.081,0,0.163-0.009,0.247-0.028c0.084-0.019,0.161-0.048,0.233-0.089
			c0.071-0.04,0.129-0.095,0.172-0.163c0.043-0.068,0.065-0.152,0.065-0.252c0-0.186-0.086-0.32-0.256-0.401
			c-0.171-0.081-0.427-0.162-0.769-0.242c-0.168-0.037-0.331-0.085-0.49-0.145c-0.158-0.059-0.3-0.137-0.424-0.233
			c-0.124-0.096-0.224-0.216-0.298-0.359c-0.075-0.143-0.112-0.32-0.112-0.531c0-0.249,0.051-0.463,0.154-0.643
			c0.103-0.18,0.238-0.328,0.406-0.443c0.168-0.115,0.357-0.2,0.569-0.256c0.211-0.056,0.429-0.084,0.653-0.084
			c0.323,0,0.639,0.056,0.946,0.168c0.308,0.112,0.551,0.283,0.732,0.513L99.724-107.821z"/>
		<path fill="#FFFFFF" d="M101.272-110.534c0-0.18,0.067-0.337,0.2-0.471c0.134-0.134,0.303-0.2,0.508-0.2s0.378,0.064,0.517,0.191
			c0.14,0.127,0.21,0.288,0.21,0.48c0,0.193-0.07,0.353-0.21,0.48c-0.14,0.127-0.312,0.191-0.517,0.191s-0.375-0.067-0.508-0.2
			C101.338-110.197,101.272-110.354,101.272-110.534z M101.43-109.015h1.119v4.475h-1.119V-109.015z"/>
		<path fill="#FFFFFF" d="M108.46-104.54h-1.063v-0.671h-0.019c-0.155,0.261-0.371,0.46-0.648,0.597
			c-0.277,0.137-0.573,0.205-0.89,0.205c-0.342,0-0.648-0.064-0.918-0.191c-0.27-0.127-0.5-0.298-0.69-0.513
			c-0.19-0.214-0.336-0.466-0.438-0.755c-0.102-0.289-0.154-0.598-0.154-0.928c0-0.329,0.053-0.637,0.158-0.923
			c0.106-0.286,0.255-0.535,0.448-0.746c0.193-0.211,0.423-0.378,0.69-0.499c0.267-0.121,0.559-0.182,0.876-0.182
			c0.205,0,0.388,0.023,0.55,0.07c0.162,0.047,0.303,0.104,0.424,0.172c0.121,0.068,0.225,0.143,0.312,0.224
			c0.087,0.081,0.159,0.159,0.214,0.233h0.028v-3.142h1.119V-104.54z M104.777-106.796c0,0.174,0.026,0.348,0.079,0.522
			c0.053,0.174,0.132,0.329,0.238,0.466c0.106,0.137,0.239,0.249,0.401,0.336c0.162,0.087,0.351,0.131,0.569,0.131
			c0.205,0,0.388-0.042,0.55-0.126c0.162-0.084,0.3-0.194,0.415-0.331c0.115-0.137,0.202-0.291,0.261-0.462
			c0.059-0.171,0.089-0.343,0.089-0.517c0-0.174-0.029-0.348-0.089-0.522c-0.059-0.174-0.146-0.329-0.261-0.466
			c-0.115-0.137-0.253-0.249-0.415-0.336c-0.162-0.087-0.345-0.131-0.55-0.131c-0.218,0-0.407,0.042-0.569,0.126
			c-0.162,0.084-0.295,0.194-0.401,0.331c-0.106,0.137-0.185,0.291-0.238,0.461C104.804-107.142,104.777-106.97,104.777-106.796z"/>
		<path fill="#FFFFFF" d="M114.091-106.721c0,0.05,0,0.1,0,0.149c0,0.05-0.003,0.1-0.009,0.149h-3.403
			c0.012,0.162,0.054,0.309,0.126,0.443c0.071,0.134,0.166,0.249,0.284,0.345c0.118,0.096,0.252,0.173,0.401,0.228
			c0.149,0.056,0.305,0.084,0.466,0.084c0.28,0,0.516-0.051,0.709-0.154s0.351-0.244,0.476-0.424l0.746,0.597
			c-0.441,0.597-1.081,0.895-1.921,0.895c-0.348,0-0.668-0.054-0.96-0.163c-0.292-0.109-0.546-0.262-0.76-0.461
			c-0.214-0.199-0.382-0.443-0.503-0.732c-0.121-0.289-0.182-0.617-0.182-0.984c0-0.36,0.061-0.688,0.182-0.984
			c0.121-0.295,0.287-0.547,0.499-0.755c0.211-0.208,0.461-0.37,0.751-0.485c0.289-0.115,0.601-0.172,0.937-0.172
			c0.311,0,0.598,0.051,0.862,0.154c0.264,0.103,0.493,0.255,0.685,0.457c0.193,0.202,0.343,0.454,0.452,0.755
			C114.037-107.478,114.091-107.125,114.091-106.721z M112.972-107.225c0-0.143-0.02-0.28-0.061-0.41
			c-0.04-0.131-0.104-0.245-0.191-0.345c-0.087-0.099-0.197-0.179-0.331-0.238c-0.134-0.059-0.291-0.089-0.471-0.089
			c-0.336,0-0.62,0.101-0.853,0.303c-0.233,0.202-0.362,0.461-0.387,0.778H112.972z"/>
		<path fill="#FFFFFF" d="M115.172-109.015h1.063v0.718h0.019c0.099-0.224,0.272-0.421,0.518-0.592
			c0.245-0.171,0.536-0.256,0.872-0.256c0.292,0,0.542,0.051,0.751,0.154c0.208,0.103,0.379,0.238,0.513,0.406
			c0.134,0.168,0.231,0.361,0.294,0.578c0.062,0.218,0.093,0.441,0.093,0.671v2.797h-1.119v-2.48c0-0.131-0.009-0.267-0.028-0.41
			c-0.019-0.143-0.059-0.272-0.121-0.387c-0.062-0.115-0.148-0.21-0.256-0.284c-0.109-0.075-0.254-0.112-0.434-0.112
			c-0.18,0-0.336,0.036-0.466,0.107c-0.131,0.072-0.238,0.163-0.322,0.275c-0.084,0.112-0.148,0.241-0.191,0.387
			c-0.044,0.146-0.065,0.294-0.065,0.443v2.461h-1.119V-109.015z"/>
		<path fill="#FFFFFF" d="M123.656-107.775c-0.087-0.124-0.218-0.228-0.392-0.312c-0.174-0.084-0.351-0.126-0.531-0.126
			c-0.205,0-0.385,0.042-0.541,0.126c-0.155,0.084-0.284,0.194-0.387,0.331c-0.102,0.137-0.179,0.291-0.228,0.462
			c-0.05,0.171-0.075,0.343-0.075,0.517c0,0.174,0.026,0.347,0.079,0.517c0.053,0.171,0.132,0.325,0.238,0.462
			c0.106,0.137,0.238,0.247,0.396,0.331c0.159,0.084,0.343,0.126,0.555,0.126c0.174,0,0.348-0.034,0.522-0.102
			c0.174-0.068,0.314-0.168,0.42-0.298l0.699,0.709c-0.187,0.199-0.424,0.353-0.713,0.461c-0.289,0.109-0.601,0.163-0.937,0.163
			c-0.33,0-0.642-0.053-0.937-0.158c-0.295-0.106-0.553-0.261-0.774-0.466c-0.221-0.205-0.395-0.454-0.522-0.746
			c-0.127-0.292-0.191-0.625-0.191-0.998c0-0.36,0.064-0.687,0.191-0.979c0.127-0.292,0.3-0.541,0.518-0.746
			c0.217-0.205,0.471-0.364,0.76-0.475c0.289-0.112,0.598-0.168,0.928-0.168s0.648,0.062,0.956,0.186
			c0.308,0.124,0.552,0.295,0.732,0.513L123.656-107.775z"/>
		<path fill="#FFFFFF" d="M129.418-106.721c0,0.05,0,0.1,0,0.149c0,0.05-0.003,0.1-0.009,0.149h-3.403
			c0.012,0.162,0.054,0.309,0.126,0.443c0.071,0.134,0.166,0.249,0.284,0.345c0.118,0.096,0.252,0.173,0.401,0.228
			c0.149,0.056,0.305,0.084,0.466,0.084c0.28,0,0.516-0.051,0.709-0.154s0.351-0.244,0.476-0.424l0.746,0.597
			c-0.441,0.597-1.081,0.895-1.921,0.895c-0.348,0-0.668-0.054-0.96-0.163c-0.292-0.109-0.546-0.262-0.76-0.461
			c-0.214-0.199-0.382-0.443-0.503-0.732s-0.182-0.617-0.182-0.984c0-0.36,0.061-0.688,0.182-0.984
			c0.121-0.295,0.287-0.547,0.499-0.755c0.211-0.208,0.461-0.37,0.751-0.485c0.289-0.115,0.601-0.172,0.937-0.172
			c0.311,0,0.598,0.051,0.862,0.154c0.264,0.103,0.493,0.255,0.685,0.457c0.193,0.202,0.343,0.454,0.452,0.755
			C129.364-107.478,129.418-107.125,129.418-106.721z M128.299-107.225c0-0.143-0.02-0.28-0.061-0.41
			c-0.04-0.131-0.104-0.245-0.191-0.345c-0.087-0.099-0.197-0.179-0.331-0.238c-0.134-0.059-0.291-0.089-0.471-0.089
			c-0.336,0-0.62,0.101-0.853,0.303c-0.233,0.202-0.362,0.461-0.387,0.778H128.299z"/>
	</g>
	<path fill="#FFFFFF" d="M35.458-117.756h-9.361v-23.402h-0.095l-5.97,23.402h-6.4L7.47-141.158H7.374v23.402h-7.546v-32.764h13.134
		l4.681,17.384h0.095l4.49-17.384h13.23V-117.756z"/>
	<path fill="#FFFFFF" d="M67.173-150.52h12.084c4.728,0,8.502,0.621,12.036,4.012c3.439,3.248,5.014,7.737,5.014,12.418
		c0,4.298-1.528,8.788-4.537,11.893c-3.248,3.391-7.308,4.441-11.845,4.441H67.173V-150.52z M78.684-125.302
		c1.337,0,2.196,0.095,3.439-0.573c0.907-0.526,1.623-1.242,2.148-2.15c1.147-1.911,1.529-4.107,1.529-6.304
		c0-2.197-0.621-5.063-2.006-6.877c-1.576-1.959-3.104-1.863-5.396-1.863H77.25v17.768H78.684z"/>
	<path fill="#FFFFFF" d="M129.828-134.042c0,9.313-5.732,16.764-15.666,16.764c-9.935,0-15.667-7.45-15.667-16.764
		c0-9.791,5.684-16.956,15.667-16.956C124.144-150.998,129.828-143.833,129.828-134.042z M109.243-133.995
		c0,3.152,0.334,9.218,4.92,9.218c4.585,0,4.919-6.066,4.919-9.218c0-3.2-0.477-9.6-4.919-9.6
		C109.72-143.594,109.243-137.195,109.243-133.995z"/>
	<path fill="#CA5C24" d="M37.318-134.41c0-7.722,6.227-13.001,13.998-13.001c7.77,0,13.997,5.28,13.997,13.001
		c0,8.169-6.027,13.449-13.997,13.449C43.346-120.96,37.318-126.241,37.318-134.41z"/>
</g>
<g>
	<g>
		<path fill="#FFFFFF" d="M53.682-35.096c-0.124-0.162-0.3-0.297-0.527-0.406c-0.227-0.109-0.455-0.163-0.685-0.163
			c-0.137,0-0.273,0.017-0.41,0.051c-0.137,0.034-0.261,0.087-0.373,0.159c-0.112,0.071-0.204,0.165-0.275,0.28
			c-0.072,0.115-0.107,0.253-0.107,0.415c0,0.149,0.031,0.277,0.093,0.382c0.062,0.106,0.148,0.196,0.257,0.27
			c0.109,0.075,0.241,0.14,0.396,0.196c0.155,0.056,0.326,0.112,0.513,0.168c0.211,0.068,0.43,0.146,0.657,0.233
			c0.227,0.087,0.435,0.202,0.625,0.345c0.19,0.143,0.345,0.323,0.466,0.541c0.121,0.218,0.182,0.488,0.182,0.811
			c0,0.354-0.065,0.664-0.196,0.928c-0.131,0.264-0.305,0.483-0.522,0.657c-0.218,0.174-0.473,0.305-0.765,0.392
			c-0.292,0.087-0.6,0.131-0.923,0.131c-0.429,0-0.848-0.079-1.259-0.238c-0.41-0.159-0.746-0.393-1.007-0.704l0.839-0.783
			c0.162,0.224,0.378,0.401,0.648,0.531c0.27,0.131,0.536,0.196,0.797,0.196c0.137,0,0.277-0.017,0.42-0.051
			c0.143-0.034,0.272-0.092,0.387-0.173c0.115-0.081,0.208-0.182,0.28-0.303c0.071-0.121,0.107-0.272,0.107-0.452
			c0-0.174-0.041-0.318-0.121-0.434c-0.081-0.115-0.19-0.214-0.326-0.298c-0.137-0.084-0.298-0.157-0.485-0.219
			c-0.187-0.062-0.382-0.127-0.587-0.196c-0.199-0.062-0.398-0.137-0.597-0.224c-0.199-0.087-0.378-0.202-0.536-0.345
			c-0.158-0.143-0.287-0.318-0.387-0.527c-0.099-0.208-0.149-0.468-0.149-0.778c0-0.336,0.07-0.625,0.21-0.867
			c0.14-0.242,0.323-0.443,0.55-0.601c0.227-0.158,0.485-0.276,0.774-0.354c0.289-0.078,0.583-0.116,0.881-0.116
			c0.336,0,0.676,0.059,1.021,0.177c0.345,0.118,0.645,0.295,0.9,0.531L53.682-35.096z"/>
		<path fill="#FFFFFF" d="M54.912-33.455v-0.895h0.783v-1.296h1.1v1.296h1.119v0.895h-1.119v2.079c0,0.199,0.036,0.364,0.107,0.494
			c0.071,0.131,0.232,0.196,0.48,0.196c0.075,0,0.155-0.008,0.242-0.023c0.087-0.015,0.165-0.039,0.233-0.07l0.037,0.876
			c-0.099,0.037-0.218,0.067-0.354,0.089c-0.137,0.022-0.267,0.033-0.392,0.033c-0.298,0-0.541-0.042-0.727-0.126
			c-0.187-0.084-0.334-0.199-0.443-0.345c-0.109-0.146-0.183-0.314-0.224-0.503c-0.041-0.19-0.061-0.393-0.061-0.611v-2.088H54.912z
			"/>
		<path fill="#FFFFFF" d="M62.809-29.875h-1.063v-0.718h-0.019c-0.099,0.224-0.272,0.421-0.517,0.592
			c-0.246,0.171-0.536,0.256-0.872,0.256c-0.292,0-0.542-0.051-0.751-0.154c-0.208-0.103-0.379-0.238-0.513-0.406
			c-0.134-0.168-0.232-0.36-0.294-0.578c-0.062-0.218-0.093-0.441-0.093-0.671v-2.797h1.119v2.48c0,0.131,0.009,0.267,0.028,0.41
			c0.019,0.143,0.059,0.272,0.121,0.387c0.062,0.115,0.147,0.21,0.256,0.284c0.109,0.075,0.253,0.112,0.433,0.112
			c0.174,0,0.328-0.036,0.461-0.107c0.134-0.071,0.242-0.163,0.326-0.275c0.084-0.112,0.148-0.241,0.191-0.387
			c0.043-0.146,0.065-0.294,0.065-0.443v-2.461h1.119V-29.875z"/>
		<path fill="#FFFFFF" d="M68.701-29.875h-1.063v-0.671h-0.019c-0.155,0.261-0.371,0.46-0.648,0.597
			c-0.277,0.137-0.573,0.205-0.89,0.205c-0.342,0-0.648-0.064-0.918-0.191c-0.27-0.127-0.5-0.298-0.69-0.513
			c-0.19-0.214-0.336-0.466-0.438-0.755c-0.102-0.289-0.154-0.598-0.154-0.928c0-0.329,0.053-0.637,0.158-0.923
			c0.106-0.286,0.255-0.534,0.448-0.746c0.193-0.211,0.423-0.378,0.69-0.499c0.267-0.121,0.559-0.182,0.876-0.182
			c0.205,0,0.388,0.023,0.55,0.07c0.162,0.047,0.303,0.104,0.424,0.172c0.121,0.068,0.225,0.143,0.312,0.224
			c0.087,0.081,0.159,0.159,0.214,0.233h0.028v-3.142h1.119V-29.875z M65.018-32.131c0,0.174,0.026,0.348,0.079,0.522
			c0.053,0.174,0.132,0.329,0.238,0.466c0.106,0.137,0.239,0.249,0.401,0.336c0.162,0.087,0.351,0.131,0.569,0.131
			c0.205,0,0.388-0.042,0.55-0.126c0.162-0.084,0.3-0.194,0.415-0.331c0.115-0.137,0.202-0.291,0.261-0.462
			c0.059-0.171,0.089-0.343,0.089-0.517c0-0.174-0.029-0.348-0.089-0.522c-0.059-0.174-0.146-0.329-0.261-0.466
			c-0.115-0.137-0.253-0.249-0.415-0.336c-0.162-0.087-0.345-0.131-0.55-0.131c-0.218,0-0.407,0.042-0.569,0.126
			c-0.162,0.084-0.295,0.194-0.401,0.331c-0.106,0.137-0.185,0.291-0.238,0.461C65.045-32.477,65.018-32.305,65.018-32.131z"/>
		<path fill="#FFFFFF" d="M74.332-32.056c0,0.05,0,0.1,0,0.149c0,0.05-0.003,0.1-0.009,0.149H70.92
			c0.012,0.162,0.054,0.309,0.126,0.443c0.071,0.134,0.166,0.249,0.284,0.345c0.118,0.096,0.252,0.173,0.401,0.228
			c0.149,0.056,0.305,0.084,0.466,0.084c0.28,0,0.516-0.051,0.709-0.154s0.351-0.244,0.476-0.424l0.746,0.597
			c-0.441,0.597-1.081,0.895-1.921,0.895c-0.348,0-0.668-0.054-0.96-0.163c-0.292-0.109-0.546-0.262-0.76-0.461
			c-0.214-0.199-0.382-0.443-0.503-0.732c-0.121-0.289-0.182-0.617-0.182-0.984c0-0.36,0.061-0.688,0.182-0.984
			c0.121-0.295,0.287-0.547,0.499-0.755c0.211-0.208,0.461-0.37,0.751-0.485c0.289-0.115,0.601-0.172,0.937-0.172
			c0.311,0,0.598,0.051,0.862,0.154s0.493,0.255,0.685,0.457c0.193,0.202,0.343,0.454,0.452,0.755
			C74.278-32.813,74.332-32.46,74.332-32.056z M73.213-32.56c0-0.143-0.02-0.28-0.061-0.41c-0.04-0.131-0.104-0.245-0.191-0.345
			c-0.087-0.099-0.197-0.179-0.331-0.238c-0.134-0.059-0.291-0.089-0.471-0.089c-0.336,0-0.62,0.101-0.853,0.303
			c-0.233,0.202-0.362,0.461-0.387,0.778H73.213z"/>
		<path fill="#FFFFFF" d="M75.414-34.35h1.063v0.718h0.019c0.099-0.224,0.272-0.421,0.518-0.592
			c0.245-0.171,0.536-0.256,0.872-0.256c0.292,0,0.542,0.051,0.751,0.154c0.208,0.103,0.379,0.238,0.513,0.406
			c0.134,0.168,0.231,0.361,0.294,0.578c0.062,0.218,0.093,0.441,0.093,0.671v2.797h-1.119v-2.48c0-0.131-0.009-0.267-0.028-0.41
			c-0.019-0.143-0.059-0.272-0.121-0.387c-0.062-0.115-0.148-0.21-0.256-0.284c-0.109-0.075-0.254-0.112-0.434-0.112
			c-0.18,0-0.336,0.036-0.466,0.107c-0.131,0.071-0.238,0.163-0.322,0.275c-0.084,0.112-0.148,0.241-0.191,0.387
			c-0.044,0.146-0.065,0.294-0.065,0.443v2.461h-1.119V-34.35z"/>
		<path fill="#FFFFFF" d="M80.196-33.455v-0.895h0.783v-1.296h1.1v1.296h1.119v0.895h-1.119v2.079c0,0.199,0.036,0.364,0.107,0.494
			c0.071,0.131,0.232,0.196,0.48,0.196c0.075,0,0.155-0.008,0.242-0.023c0.087-0.015,0.165-0.039,0.233-0.07l0.037,0.876
			c-0.099,0.037-0.218,0.067-0.354,0.089c-0.137,0.022-0.267,0.033-0.392,0.033c-0.298,0-0.541-0.042-0.727-0.126
			c-0.187-0.084-0.334-0.199-0.443-0.345c-0.109-0.146-0.183-0.314-0.224-0.503c-0.041-0.19-0.061-0.393-0.061-0.611v-2.088H80.196z
			"/>
		<path fill="#FFFFFF" d="M86.396-36.476h2.294c0.311,0,0.612,0.033,0.904,0.098c0.292,0.065,0.552,0.172,0.779,0.322
			c0.227,0.149,0.409,0.345,0.545,0.587c0.137,0.242,0.205,0.538,0.205,0.886c0,0.479-0.135,0.869-0.406,1.17
			c-0.27,0.302-0.639,0.505-1.105,0.611l1.762,2.928h-1.417l-1.529-2.797h-0.858v2.797h-1.175V-36.476z M88.531-33.632
			c0.168,0,0.336-0.012,0.503-0.037c0.168-0.025,0.318-0.071,0.452-0.14c0.134-0.068,0.244-0.166,0.331-0.294
			c0.087-0.127,0.131-0.29,0.131-0.49c0-0.18-0.041-0.328-0.121-0.443c-0.081-0.115-0.183-0.207-0.308-0.275
			c-0.124-0.068-0.266-0.115-0.424-0.14c-0.158-0.025-0.312-0.037-0.461-0.037h-1.063v1.855H88.531z"/>
		<path fill="#FFFFFF" d="M96.363-32.056c0,0.05,0,0.1,0,0.149c0,0.05-0.003,0.1-0.009,0.149H92.95
			c0.012,0.162,0.054,0.309,0.126,0.443c0.071,0.134,0.166,0.249,0.284,0.345c0.118,0.096,0.252,0.173,0.401,0.228
			c0.149,0.056,0.305,0.084,0.466,0.084c0.28,0,0.516-0.051,0.709-0.154s0.351-0.244,0.476-0.424l0.746,0.597
			c-0.441,0.597-1.081,0.895-1.921,0.895c-0.348,0-0.668-0.054-0.96-0.163c-0.292-0.109-0.546-0.262-0.76-0.461
			c-0.214-0.199-0.382-0.443-0.503-0.732c-0.121-0.289-0.182-0.617-0.182-0.984c0-0.36,0.061-0.688,0.182-0.984
			c0.121-0.295,0.287-0.547,0.499-0.755c0.211-0.208,0.461-0.37,0.751-0.485c0.289-0.115,0.601-0.172,0.937-0.172
			c0.311,0,0.598,0.051,0.862,0.154c0.264,0.103,0.493,0.255,0.685,0.457c0.193,0.202,0.343,0.454,0.452,0.755
			C96.308-32.813,96.363-32.46,96.363-32.056z M95.244-32.56c0-0.143-0.02-0.28-0.061-0.41c-0.04-0.131-0.104-0.245-0.191-0.345
			c-0.087-0.099-0.197-0.179-0.331-0.238c-0.134-0.059-0.291-0.089-0.471-0.089c-0.336,0-0.62,0.101-0.853,0.303
			c-0.233,0.202-0.362,0.461-0.387,0.778H95.244z"/>
		<path fill="#FFFFFF" d="M99.896-33.157c-0.099-0.13-0.236-0.244-0.41-0.34c-0.174-0.096-0.364-0.145-0.569-0.145
			c-0.18,0-0.345,0.037-0.494,0.112c-0.149,0.075-0.224,0.199-0.224,0.373c0,0.174,0.082,0.297,0.247,0.368
			c0.165,0.071,0.406,0.145,0.723,0.219c0.168,0.037,0.337,0.087,0.508,0.149c0.171,0.062,0.326,0.145,0.466,0.247
			c0.14,0.102,0.253,0.23,0.34,0.382c0.087,0.152,0.131,0.337,0.131,0.555c0,0.273-0.051,0.505-0.154,0.695
			c-0.103,0.19-0.239,0.343-0.41,0.461c-0.171,0.118-0.37,0.204-0.597,0.256c-0.227,0.053-0.461,0.079-0.704,0.079
			c-0.348,0-0.687-0.064-1.016-0.191c-0.33-0.127-0.603-0.309-0.82-0.545l0.737-0.69c0.124,0.162,0.286,0.295,0.485,0.401
			c0.199,0.106,0.42,0.159,0.662,0.159c0.081,0,0.163-0.009,0.247-0.028s0.161-0.048,0.233-0.089
			c0.071-0.04,0.129-0.095,0.172-0.163c0.043-0.068,0.065-0.152,0.065-0.252c0-0.186-0.086-0.32-0.256-0.401
			c-0.171-0.081-0.427-0.162-0.769-0.242c-0.168-0.037-0.331-0.085-0.49-0.145c-0.158-0.059-0.3-0.137-0.424-0.233
			c-0.124-0.096-0.224-0.216-0.298-0.359c-0.075-0.143-0.112-0.32-0.112-0.531c0-0.249,0.051-0.463,0.154-0.643
			c0.103-0.18,0.238-0.328,0.406-0.443c0.168-0.115,0.357-0.2,0.569-0.256c0.211-0.056,0.429-0.084,0.653-0.084
			c0.323,0,0.639,0.056,0.946,0.168c0.308,0.112,0.551,0.283,0.732,0.513L99.896-33.157z"/>
		<path fill="#FFFFFF" d="M101.444-35.87c0-0.18,0.067-0.337,0.2-0.471c0.134-0.134,0.303-0.2,0.508-0.2s0.378,0.064,0.517,0.191
			c0.14,0.127,0.21,0.288,0.21,0.48c0,0.193-0.07,0.353-0.21,0.48c-0.14,0.127-0.312,0.191-0.517,0.191s-0.375-0.067-0.508-0.2
			C101.51-35.532,101.444-35.689,101.444-35.87z M101.602-34.35h1.119v4.475h-1.119V-34.35z"/>
		<path fill="#FFFFFF" d="M108.632-29.875h-1.063v-0.671h-0.019c-0.155,0.261-0.371,0.46-0.648,0.597
			c-0.277,0.137-0.573,0.205-0.89,0.205c-0.342,0-0.648-0.064-0.918-0.191c-0.27-0.127-0.5-0.298-0.69-0.513
			c-0.19-0.214-0.336-0.466-0.438-0.755c-0.102-0.289-0.154-0.598-0.154-0.928c0-0.329,0.053-0.637,0.158-0.923
			c0.106-0.286,0.255-0.534,0.448-0.746c0.193-0.211,0.423-0.378,0.69-0.499c0.267-0.121,0.559-0.182,0.876-0.182
			c0.205,0,0.388,0.023,0.55,0.07c0.162,0.047,0.303,0.104,0.424,0.172c0.121,0.068,0.225,0.143,0.312,0.224
			c0.087,0.081,0.159,0.159,0.214,0.233h0.028v-3.142h1.119V-29.875z M104.949-32.131c0,0.174,0.026,0.348,0.079,0.522
			c0.053,0.174,0.132,0.329,0.238,0.466c0.106,0.137,0.239,0.249,0.401,0.336c0.162,0.087,0.351,0.131,0.569,0.131
			c0.205,0,0.388-0.042,0.55-0.126c0.162-0.084,0.3-0.194,0.415-0.331c0.115-0.137,0.202-0.291,0.261-0.462
			c0.059-0.171,0.089-0.343,0.089-0.517c0-0.174-0.029-0.348-0.089-0.522c-0.059-0.174-0.146-0.329-0.261-0.466
			c-0.115-0.137-0.253-0.249-0.415-0.336c-0.162-0.087-0.345-0.131-0.55-0.131c-0.218,0-0.407,0.042-0.569,0.126
			c-0.162,0.084-0.295,0.194-0.401,0.331c-0.106,0.137-0.185,0.291-0.238,0.461C104.975-32.477,104.949-32.305,104.949-32.131z"/>
		<path fill="#FFFFFF" d="M114.263-32.056c0,0.05,0,0.1,0,0.149c0,0.05-0.003,0.1-0.009,0.149h-3.403
			c0.012,0.162,0.054,0.309,0.126,0.443c0.071,0.134,0.166,0.249,0.284,0.345c0.118,0.096,0.252,0.173,0.401,0.228
			c0.149,0.056,0.305,0.084,0.466,0.084c0.28,0,0.516-0.051,0.709-0.154s0.351-0.244,0.476-0.424l0.746,0.597
			c-0.441,0.597-1.081,0.895-1.921,0.895c-0.348,0-0.668-0.054-0.96-0.163c-0.292-0.109-0.546-0.262-0.76-0.461
			c-0.214-0.199-0.382-0.443-0.503-0.732c-0.121-0.289-0.182-0.617-0.182-0.984c0-0.36,0.061-0.688,0.182-0.984
			c0.121-0.295,0.287-0.547,0.499-0.755c0.211-0.208,0.461-0.37,0.751-0.485c0.289-0.115,0.601-0.172,0.937-0.172
			c0.311,0,0.598,0.051,0.862,0.154s0.493,0.255,0.685,0.457c0.193,0.202,0.343,0.454,0.452,0.755
			C114.209-32.813,114.263-32.46,114.263-32.056z M113.144-32.56c0-0.143-0.02-0.28-0.061-0.41c-0.04-0.131-0.104-0.245-0.191-0.345
			c-0.087-0.099-0.197-0.179-0.331-0.238c-0.134-0.059-0.291-0.089-0.471-0.089c-0.336,0-0.62,0.101-0.853,0.303
			c-0.233,0.202-0.362,0.461-0.387,0.778H113.144z"/>
		<path fill="#FFFFFF" d="M115.344-34.35h1.063v0.718h0.019c0.099-0.224,0.272-0.421,0.518-0.592
			c0.245-0.171,0.536-0.256,0.872-0.256c0.292,0,0.542,0.051,0.751,0.154c0.208,0.103,0.379,0.238,0.513,0.406
			c0.134,0.168,0.231,0.361,0.294,0.578c0.062,0.218,0.093,0.441,0.093,0.671v2.797h-1.119v-2.48c0-0.131-0.009-0.267-0.028-0.41
			c-0.019-0.143-0.059-0.272-0.121-0.387c-0.062-0.115-0.148-0.21-0.256-0.284c-0.109-0.075-0.254-0.112-0.434-0.112
			c-0.18,0-0.336,0.036-0.466,0.107c-0.131,0.071-0.238,0.163-0.322,0.275c-0.084,0.112-0.148,0.241-0.191,0.387
			c-0.044,0.146-0.065,0.294-0.065,0.443v2.461h-1.119V-34.35z"/>
		<path fill="#FFFFFF" d="M123.828-33.11c-0.087-0.124-0.218-0.228-0.392-0.312c-0.174-0.084-0.351-0.126-0.531-0.126
			c-0.205,0-0.385,0.042-0.541,0.126c-0.155,0.084-0.284,0.194-0.387,0.331c-0.102,0.137-0.179,0.291-0.228,0.462
			c-0.05,0.171-0.075,0.343-0.075,0.517c0,0.174,0.026,0.347,0.079,0.517c0.053,0.171,0.132,0.325,0.238,0.462
			c0.106,0.137,0.238,0.247,0.396,0.331c0.159,0.084,0.343,0.126,0.555,0.126c0.174,0,0.348-0.034,0.522-0.102
			c0.174-0.068,0.314-0.168,0.42-0.298l0.699,0.709c-0.187,0.199-0.424,0.353-0.713,0.461c-0.289,0.109-0.601,0.163-0.937,0.163
			c-0.33,0-0.642-0.053-0.937-0.158c-0.295-0.106-0.553-0.261-0.774-0.466c-0.221-0.205-0.395-0.454-0.522-0.746
			c-0.127-0.292-0.191-0.625-0.191-0.998c0-0.36,0.064-0.687,0.191-0.979c0.127-0.292,0.3-0.541,0.518-0.746
			c0.217-0.205,0.471-0.364,0.76-0.475c0.289-0.112,0.598-0.168,0.928-0.168s0.648,0.062,0.956,0.186
			c0.308,0.124,0.552,0.295,0.732,0.513L123.828-33.11z"/>
		<path fill="#FFFFFF" d="M129.59-32.056c0,0.05,0,0.1,0,0.149c0,0.05-0.003,0.1-0.009,0.149h-3.403
			c0.012,0.162,0.054,0.309,0.126,0.443c0.071,0.134,0.166,0.249,0.284,0.345c0.118,0.096,0.252,0.173,0.401,0.228
			c0.149,0.056,0.305,0.084,0.466,0.084c0.28,0,0.516-0.051,0.709-0.154c0.193-0.103,0.351-0.244,0.476-0.424l0.746,0.597
			c-0.441,0.597-1.081,0.895-1.921,0.895c-0.348,0-0.668-0.054-0.96-0.163c-0.292-0.109-0.546-0.262-0.76-0.461
			c-0.214-0.199-0.382-0.443-0.503-0.732c-0.121-0.289-0.182-0.617-0.182-0.984c0-0.36,0.061-0.688,0.182-0.984
			c0.121-0.295,0.287-0.547,0.499-0.755c0.211-0.208,0.461-0.37,0.751-0.485c0.289-0.115,0.601-0.172,0.937-0.172
			c0.311,0,0.598,0.051,0.862,0.154c0.264,0.103,0.493,0.255,0.685,0.457c0.193,0.202,0.343,0.454,0.452,0.755
			C129.535-32.813,129.59-32.46,129.59-32.056z M128.471-32.56c0-0.143-0.02-0.28-0.061-0.41c-0.04-0.131-0.104-0.245-0.191-0.345
			c-0.087-0.099-0.197-0.179-0.331-0.238c-0.134-0.059-0.291-0.089-0.471-0.089c-0.336,0-0.62,0.101-0.853,0.303
			c-0.233,0.202-0.362,0.461-0.387,0.778H128.471z"/>
	</g>
	<path fill="#FFFFFF" d="M35.63-43.091h-9.361v-23.402h-0.095l-5.97,23.402h-6.4L7.642-66.494H7.546v23.402H0v-32.764h13.134
		l4.681,17.384h0.095l4.49-17.384h13.23V-43.091z"/>
	<path fill="#FFFFFF" d="M67.345-75.855h12.084c4.728,0,8.502,0.621,12.036,4.012c3.439,3.248,5.014,7.737,5.014,12.418
		c0,4.298-1.528,8.788-4.537,11.893c-3.248,3.391-7.308,4.441-11.845,4.441H67.345V-75.855z M78.856-50.637
		c1.337,0,2.196,0.095,3.439-0.573c0.907-0.526,1.623-1.242,2.148-2.15c1.147-1.911,1.529-4.107,1.529-6.304
		s-0.621-5.063-2.006-6.877c-1.576-1.959-3.104-1.863-5.396-1.863h-1.147v17.768H78.856z"/>
	<path fill="#FFFFFF" d="M130-59.377c0,9.313-5.732,16.764-15.666,16.764c-9.935,0-15.667-7.45-15.667-16.764
		c0-9.791,5.684-16.956,15.667-16.956C124.316-76.333,130-69.168,130-59.377z M109.414-59.33c0,3.152,0.334,9.218,4.92,9.218
		c4.585,0,4.919-6.066,4.919-9.218c0-3.2-0.477-9.6-4.919-9.6C109.892-68.93,109.414-62.53,109.414-59.33z"/>
	<path fill="#62A347" d="M37.49-59.745c0-7.722,6.227-13.001,13.998-13.001c7.77,0,13.997,5.28,13.997,13.001
		c0,8.169-6.027,13.449-13.997,13.449C43.518-46.295,37.49-51.576,37.49-59.745z"/>
</g>
<g>
	<g>
		<path fill="#FFFFFF" d="M53.682,41.238c-0.124-0.162-0.3-0.297-0.527-0.406c-0.227-0.109-0.455-0.163-0.685-0.163
			c-0.137,0-0.273,0.017-0.41,0.051c-0.137,0.034-0.261,0.087-0.373,0.159c-0.112,0.071-0.204,0.165-0.275,0.28
			c-0.072,0.115-0.107,0.253-0.107,0.415c0,0.149,0.031,0.277,0.093,0.382c0.062,0.106,0.148,0.196,0.257,0.27
			c0.109,0.075,0.241,0.14,0.396,0.196c0.155,0.056,0.326,0.112,0.513,0.168c0.211,0.068,0.43,0.146,0.657,0.233
			c0.227,0.087,0.435,0.202,0.625,0.345c0.19,0.143,0.345,0.323,0.466,0.541c0.121,0.218,0.182,0.488,0.182,0.811
			c0,0.354-0.065,0.664-0.196,0.928c-0.131,0.264-0.305,0.483-0.522,0.657c-0.218,0.174-0.473,0.305-0.765,0.392
			c-0.292,0.087-0.6,0.131-0.923,0.131c-0.429,0-0.848-0.079-1.259-0.238c-0.41-0.159-0.746-0.393-1.007-0.704l0.839-0.783
			c0.162,0.224,0.378,0.401,0.648,0.531c0.27,0.131,0.536,0.196,0.797,0.196c0.137,0,0.277-0.017,0.42-0.051
			c0.143-0.034,0.272-0.092,0.387-0.173c0.115-0.081,0.208-0.182,0.28-0.303c0.071-0.121,0.107-0.272,0.107-0.452
			c0-0.174-0.041-0.318-0.121-0.434c-0.081-0.115-0.19-0.214-0.326-0.298c-0.137-0.084-0.298-0.157-0.485-0.219
			c-0.187-0.062-0.382-0.127-0.587-0.196c-0.199-0.062-0.398-0.137-0.597-0.224c-0.199-0.087-0.378-0.202-0.536-0.345
			c-0.158-0.143-0.287-0.318-0.387-0.527c-0.099-0.208-0.149-0.468-0.149-0.778c0-0.336,0.07-0.625,0.21-0.867
			c0.14-0.242,0.323-0.443,0.55-0.601c0.227-0.158,0.485-0.276,0.774-0.354c0.289-0.078,0.583-0.116,0.881-0.116
			c0.336,0,0.676,0.059,1.021,0.177c0.345,0.118,0.645,0.295,0.9,0.531L53.682,41.238z"/>
		<path fill="#FFFFFF" d="M54.912,42.878v-0.895h0.783v-1.296h1.1v1.296h1.119v0.895h-1.119v2.079c0,0.199,0.036,0.364,0.107,0.494
			c0.071,0.131,0.232,0.196,0.48,0.196c0.075,0,0.155-0.008,0.242-0.023c0.087-0.015,0.165-0.039,0.233-0.07l0.037,0.876
			c-0.099,0.037-0.218,0.067-0.354,0.089c-0.137,0.022-0.267,0.033-0.392,0.033c-0.298,0-0.541-0.042-0.727-0.126
			c-0.187-0.084-0.334-0.199-0.443-0.345c-0.109-0.146-0.183-0.314-0.224-0.503c-0.041-0.19-0.061-0.393-0.061-0.611v-2.088H54.912z
			"/>
		<path fill="#FFFFFF" d="M62.809,46.459h-1.063v-0.718h-0.019c-0.099,0.224-0.272,0.421-0.517,0.592
			c-0.246,0.171-0.536,0.256-0.872,0.256c-0.292,0-0.542-0.051-0.751-0.154c-0.208-0.103-0.379-0.238-0.513-0.406
			c-0.134-0.168-0.232-0.36-0.294-0.578c-0.062-0.218-0.093-0.441-0.093-0.671v-2.797h1.119v2.48c0,0.131,0.009,0.267,0.028,0.41
			c0.019,0.143,0.059,0.272,0.121,0.387c0.062,0.115,0.147,0.21,0.256,0.284c0.109,0.075,0.253,0.112,0.433,0.112
			c0.174,0,0.328-0.036,0.461-0.107c0.134-0.071,0.242-0.163,0.326-0.275c0.084-0.112,0.148-0.241,0.191-0.387
			c0.043-0.146,0.065-0.294,0.065-0.443v-2.461h1.119V46.459z"/>
		<path fill="#FFFFFF" d="M68.701,46.459h-1.063v-0.671h-0.019c-0.155,0.261-0.371,0.46-0.648,0.597
			c-0.277,0.137-0.573,0.205-0.89,0.205c-0.342,0-0.648-0.064-0.918-0.191c-0.27-0.127-0.5-0.298-0.69-0.513
			c-0.19-0.214-0.336-0.466-0.438-0.755c-0.102-0.289-0.154-0.598-0.154-0.928c0-0.329,0.053-0.637,0.158-0.923
			c0.106-0.286,0.255-0.534,0.448-0.746c0.193-0.211,0.423-0.378,0.69-0.499c0.267-0.121,0.559-0.182,0.876-0.182
			c0.205,0,0.388,0.023,0.55,0.07c0.162,0.047,0.303,0.104,0.424,0.172c0.121,0.068,0.225,0.143,0.312,0.224
			c0.087,0.081,0.159,0.159,0.214,0.233h0.028V39.41h1.119V46.459z M65.018,44.202c0,0.174,0.026,0.348,0.079,0.522
			c0.053,0.174,0.132,0.329,0.238,0.466c0.106,0.137,0.239,0.249,0.401,0.336c0.162,0.087,0.351,0.131,0.569,0.131
			c0.205,0,0.388-0.042,0.55-0.126c0.162-0.084,0.3-0.194,0.415-0.331c0.115-0.137,0.202-0.291,0.261-0.462
			c0.059-0.171,0.089-0.343,0.089-0.517c0-0.174-0.029-0.348-0.089-0.522c-0.059-0.174-0.146-0.329-0.261-0.466
			c-0.115-0.137-0.253-0.249-0.415-0.336c-0.162-0.087-0.345-0.131-0.55-0.131c-0.218,0-0.407,0.042-0.569,0.126
			c-0.162,0.084-0.295,0.194-0.401,0.331c-0.106,0.137-0.185,0.291-0.238,0.461C65.045,43.856,65.018,44.028,65.018,44.202z"/>
		<path fill="#FFFFFF" d="M74.332,44.277c0,0.05,0,0.1,0,0.149c0,0.05-0.003,0.1-0.009,0.149H70.92
			c0.012,0.162,0.054,0.309,0.126,0.443c0.071,0.134,0.166,0.249,0.284,0.345c0.118,0.096,0.252,0.173,0.401,0.228
			c0.149,0.056,0.305,0.084,0.466,0.084c0.28,0,0.516-0.051,0.709-0.154s0.351-0.244,0.476-0.424l0.746,0.597
			c-0.441,0.597-1.081,0.895-1.921,0.895c-0.348,0-0.668-0.054-0.96-0.163c-0.292-0.109-0.546-0.262-0.76-0.461
			c-0.214-0.199-0.382-0.443-0.503-0.732c-0.121-0.289-0.182-0.617-0.182-0.984c0-0.36,0.061-0.688,0.182-0.984
			c0.121-0.295,0.287-0.547,0.499-0.755c0.211-0.208,0.461-0.37,0.751-0.485c0.289-0.115,0.601-0.172,0.937-0.172
			c0.311,0,0.598,0.051,0.862,0.154s0.493,0.255,0.685,0.457c0.193,0.202,0.343,0.454,0.452,0.755
			C74.278,43.52,74.332,43.873,74.332,44.277z M73.213,43.773c0-0.143-0.02-0.28-0.061-0.41c-0.04-0.131-0.104-0.245-0.191-0.345
			c-0.087-0.099-0.197-0.179-0.331-0.238c-0.134-0.059-0.291-0.089-0.471-0.089c-0.336,0-0.62,0.101-0.853,0.303
			c-0.233,0.202-0.362,0.461-0.387,0.778H73.213z"/>
		<path fill="#FFFFFF" d="M75.414,41.983h1.063v0.718h0.019c0.099-0.224,0.272-0.421,0.518-0.592
			c0.245-0.171,0.536-0.256,0.872-0.256c0.292,0,0.542,0.051,0.751,0.154c0.208,0.103,0.379,0.238,0.513,0.406
			c0.134,0.168,0.231,0.361,0.294,0.578c0.062,0.218,0.093,0.441,0.093,0.671v2.797h-1.119v-2.48c0-0.131-0.009-0.267-0.028-0.41
			c-0.019-0.143-0.059-0.272-0.121-0.387c-0.062-0.115-0.148-0.21-0.256-0.284c-0.109-0.075-0.254-0.112-0.434-0.112
			c-0.18,0-0.336,0.036-0.466,0.107c-0.131,0.071-0.238,0.163-0.322,0.275c-0.084,0.112-0.148,0.241-0.191,0.387
			c-0.044,0.146-0.065,0.294-0.065,0.443v2.461h-1.119V41.983z"/>
		<path fill="#FFFFFF" d="M80.196,42.878v-0.895h0.783v-1.296h1.1v1.296h1.119v0.895h-1.119v2.079c0,0.199,0.036,0.364,0.107,0.494
			c0.071,0.131,0.232,0.196,0.48,0.196c0.075,0,0.155-0.008,0.242-0.023c0.087-0.015,0.165-0.039,0.233-0.07l0.037,0.876
			c-0.099,0.037-0.218,0.067-0.354,0.089c-0.137,0.022-0.267,0.033-0.392,0.033c-0.298,0-0.541-0.042-0.727-0.126
			c-0.187-0.084-0.334-0.199-0.443-0.345c-0.109-0.146-0.183-0.314-0.224-0.503c-0.041-0.19-0.061-0.393-0.061-0.611v-2.088H80.196z
			"/>
		<path fill="#FFFFFF" d="M86.396,39.858h2.294c0.311,0,0.612,0.033,0.904,0.098c0.292,0.065,0.552,0.172,0.779,0.322
			c0.227,0.149,0.409,0.345,0.545,0.587c0.137,0.242,0.205,0.538,0.205,0.886c0,0.479-0.135,0.869-0.406,1.17
			c-0.27,0.302-0.639,0.505-1.105,0.611l1.762,2.928h-1.417l-1.529-2.797h-0.858v2.797h-1.175V39.858z M88.531,42.701
			c0.168,0,0.336-0.012,0.503-0.037c0.168-0.025,0.318-0.071,0.452-0.14c0.134-0.068,0.244-0.166,0.331-0.294
			c0.087-0.127,0.131-0.29,0.131-0.49c0-0.18-0.041-0.328-0.121-0.443c-0.081-0.115-0.183-0.207-0.308-0.275
			c-0.124-0.068-0.266-0.115-0.424-0.14c-0.158-0.025-0.312-0.037-0.461-0.037h-1.063v1.855H88.531z"/>
		<path fill="#FFFFFF" d="M96.363,44.277c0,0.05,0,0.1,0,0.149c0,0.05-0.003,0.1-0.009,0.149H92.95
			c0.012,0.162,0.054,0.309,0.126,0.443c0.071,0.134,0.166,0.249,0.284,0.345c0.118,0.096,0.252,0.173,0.401,0.228
			c0.149,0.056,0.305,0.084,0.466,0.084c0.28,0,0.516-0.051,0.709-0.154s0.351-0.244,0.476-0.424l0.746,0.597
			c-0.441,0.597-1.081,0.895-1.921,0.895c-0.348,0-0.668-0.054-0.96-0.163c-0.292-0.109-0.546-0.262-0.76-0.461
			c-0.214-0.199-0.382-0.443-0.503-0.732c-0.121-0.289-0.182-0.617-0.182-0.984c0-0.36,0.061-0.688,0.182-0.984
			c0.121-0.295,0.287-0.547,0.499-0.755c0.211-0.208,0.461-0.37,0.751-0.485c0.289-0.115,0.601-0.172,0.937-0.172
			c0.311,0,0.598,0.051,0.862,0.154c0.264,0.103,0.493,0.255,0.685,0.457c0.193,0.202,0.343,0.454,0.452,0.755
			C96.308,43.52,96.363,43.873,96.363,44.277z M95.244,43.773c0-0.143-0.02-0.28-0.061-0.41c-0.04-0.131-0.104-0.245-0.191-0.345
			c-0.087-0.099-0.197-0.179-0.331-0.238c-0.134-0.059-0.291-0.089-0.471-0.089c-0.336,0-0.62,0.101-0.853,0.303
			c-0.233,0.202-0.362,0.461-0.387,0.778H95.244z"/>
		<path fill="#FFFFFF" d="M99.896,43.177c-0.099-0.13-0.236-0.244-0.41-0.34c-0.174-0.096-0.364-0.145-0.569-0.145
			c-0.18,0-0.345,0.037-0.494,0.112c-0.149,0.075-0.224,0.199-0.224,0.373c0,0.174,0.082,0.297,0.247,0.368
			c0.165,0.071,0.406,0.145,0.723,0.219c0.168,0.037,0.337,0.087,0.508,0.149c0.171,0.062,0.326,0.145,0.466,0.247
			c0.14,0.102,0.253,0.23,0.34,0.382c0.087,0.152,0.131,0.337,0.131,0.555c0,0.273-0.051,0.505-0.154,0.695
			c-0.103,0.19-0.239,0.343-0.41,0.461c-0.171,0.118-0.37,0.204-0.597,0.256c-0.227,0.053-0.461,0.079-0.704,0.079
			c-0.348,0-0.687-0.064-1.016-0.191c-0.33-0.127-0.603-0.309-0.82-0.545l0.737-0.69c0.124,0.162,0.286,0.295,0.485,0.401
			c0.199,0.106,0.42,0.159,0.662,0.159c0.081,0,0.163-0.009,0.247-0.028c0.084-0.019,0.161-0.048,0.233-0.089
			c0.071-0.04,0.129-0.095,0.172-0.163c0.043-0.068,0.065-0.152,0.065-0.252c0-0.186-0.086-0.32-0.256-0.401
			c-0.171-0.081-0.427-0.162-0.769-0.242c-0.168-0.037-0.331-0.085-0.49-0.145c-0.158-0.059-0.3-0.137-0.424-0.233
			c-0.124-0.096-0.224-0.216-0.298-0.359c-0.075-0.143-0.112-0.32-0.112-0.531c0-0.249,0.051-0.463,0.154-0.643
			c0.103-0.18,0.238-0.328,0.406-0.443c0.168-0.115,0.357-0.2,0.569-0.256c0.211-0.056,0.429-0.084,0.653-0.084
			c0.323,0,0.639,0.056,0.946,0.168c0.308,0.112,0.551,0.283,0.732,0.513L99.896,43.177z"/>
		<path fill="#FFFFFF" d="M101.444,40.464c0-0.18,0.067-0.337,0.2-0.471c0.134-0.134,0.303-0.2,0.508-0.2s0.378,0.064,0.517,0.191
			c0.14,0.127,0.21,0.288,0.21,0.48c0,0.193-0.07,0.353-0.21,0.48c-0.14,0.127-0.312,0.191-0.517,0.191s-0.375-0.067-0.508-0.2
			C101.51,40.801,101.444,40.644,101.444,40.464z M101.602,41.983h1.119v4.475h-1.119V41.983z"/>
		<path fill="#FFFFFF" d="M108.632,46.459h-1.063v-0.671h-0.019c-0.155,0.261-0.371,0.46-0.648,0.597
			c-0.277,0.137-0.573,0.205-0.89,0.205c-0.342,0-0.648-0.064-0.918-0.191c-0.27-0.127-0.5-0.298-0.69-0.513
			c-0.19-0.214-0.336-0.466-0.438-0.755c-0.102-0.289-0.154-0.598-0.154-0.928c0-0.329,0.053-0.637,0.158-0.923
			c0.106-0.286,0.255-0.534,0.448-0.746c0.193-0.211,0.423-0.378,0.69-0.499c0.267-0.121,0.559-0.182,0.876-0.182
			c0.205,0,0.388,0.023,0.55,0.07c0.162,0.047,0.303,0.104,0.424,0.172c0.121,0.068,0.225,0.143,0.312,0.224
			c0.087,0.081,0.159,0.159,0.214,0.233h0.028V39.41h1.119V46.459z M104.949,44.202c0,0.174,0.026,0.348,0.079,0.522
			c0.053,0.174,0.132,0.329,0.238,0.466c0.106,0.137,0.239,0.249,0.401,0.336c0.162,0.087,0.351,0.131,0.569,0.131
			c0.205,0,0.388-0.042,0.55-0.126c0.162-0.084,0.3-0.194,0.415-0.331c0.115-0.137,0.202-0.291,0.261-0.462
			c0.059-0.171,0.089-0.343,0.089-0.517c0-0.174-0.029-0.348-0.089-0.522c-0.059-0.174-0.146-0.329-0.261-0.466
			c-0.115-0.137-0.253-0.249-0.415-0.336c-0.162-0.087-0.345-0.131-0.55-0.131c-0.218,0-0.407,0.042-0.569,0.126
			c-0.162,0.084-0.295,0.194-0.401,0.331c-0.106,0.137-0.185,0.291-0.238,0.461C104.975,43.856,104.949,44.028,104.949,44.202z"/>
		<path fill="#FFFFFF" d="M114.263,44.277c0,0.05,0,0.1,0,0.149c0,0.05-0.003,0.1-0.009,0.149h-3.403
			c0.012,0.162,0.054,0.309,0.126,0.443c0.071,0.134,0.166,0.249,0.284,0.345c0.118,0.096,0.252,0.173,0.401,0.228
			c0.149,0.056,0.305,0.084,0.466,0.084c0.28,0,0.516-0.051,0.709-0.154s0.351-0.244,0.476-0.424l0.746,0.597
			c-0.441,0.597-1.081,0.895-1.921,0.895c-0.348,0-0.668-0.054-0.96-0.163c-0.292-0.109-0.546-0.262-0.76-0.461
			c-0.214-0.199-0.382-0.443-0.503-0.732c-0.121-0.289-0.182-0.617-0.182-0.984c0-0.36,0.061-0.688,0.182-0.984
			c0.121-0.295,0.287-0.547,0.499-0.755c0.211-0.208,0.461-0.37,0.751-0.485c0.289-0.115,0.601-0.172,0.937-0.172
			c0.311,0,0.598,0.051,0.862,0.154s0.493,0.255,0.685,0.457c0.193,0.202,0.343,0.454,0.452,0.755
			C114.209,43.52,114.263,43.873,114.263,44.277z M113.144,43.773c0-0.143-0.02-0.28-0.061-0.41
			c-0.04-0.131-0.104-0.245-0.191-0.345c-0.087-0.099-0.197-0.179-0.331-0.238c-0.134-0.059-0.291-0.089-0.471-0.089
			c-0.336,0-0.62,0.101-0.853,0.303c-0.233,0.202-0.362,0.461-0.387,0.778H113.144z"/>
		<path fill="#FFFFFF" d="M115.344,41.983h1.063v0.718h0.019c0.099-0.224,0.272-0.421,0.518-0.592
			c0.245-0.171,0.536-0.256,0.872-0.256c0.292,0,0.542,0.051,0.751,0.154c0.208,0.103,0.379,0.238,0.513,0.406
			c0.134,0.168,0.231,0.361,0.294,0.578c0.062,0.218,0.093,0.441,0.093,0.671v2.797h-1.119v-2.48c0-0.131-0.009-0.267-0.028-0.41
			c-0.019-0.143-0.059-0.272-0.121-0.387c-0.062-0.115-0.148-0.21-0.256-0.284c-0.109-0.075-0.254-0.112-0.434-0.112
			c-0.18,0-0.336,0.036-0.466,0.107c-0.131,0.071-0.238,0.163-0.322,0.275c-0.084,0.112-0.148,0.241-0.191,0.387
			c-0.044,0.146-0.065,0.294-0.065,0.443v2.461h-1.119V41.983z"/>
		<path fill="#FFFFFF" d="M123.828,43.223c-0.087-0.124-0.218-0.228-0.392-0.312c-0.174-0.084-0.351-0.126-0.531-0.126
			c-0.205,0-0.385,0.042-0.541,0.126c-0.155,0.084-0.284,0.194-0.387,0.331c-0.102,0.137-0.179,0.291-0.228,0.462
			c-0.05,0.171-0.075,0.343-0.075,0.517c0,0.174,0.026,0.347,0.079,0.517c0.053,0.171,0.132,0.325,0.238,0.462
			c0.106,0.137,0.238,0.247,0.396,0.331c0.159,0.084,0.343,0.126,0.555,0.126c0.174,0,0.348-0.034,0.522-0.102
			c0.174-0.068,0.314-0.168,0.42-0.298l0.699,0.709c-0.187,0.199-0.424,0.353-0.713,0.461c-0.289,0.109-0.601,0.163-0.937,0.163
			c-0.33,0-0.642-0.053-0.937-0.158c-0.295-0.106-0.553-0.261-0.774-0.466c-0.221-0.205-0.395-0.454-0.522-0.746
			c-0.127-0.292-0.191-0.625-0.191-0.998c0-0.36,0.064-0.687,0.191-0.979c0.127-0.292,0.3-0.541,0.518-0.746
			c0.217-0.205,0.471-0.364,0.76-0.475c0.289-0.112,0.598-0.168,0.928-0.168s0.648,0.062,0.956,0.186
			c0.308,0.124,0.552,0.295,0.732,0.513L123.828,43.223z"/>
		<path fill="#FFFFFF" d="M129.59,44.277c0,0.05,0,0.1,0,0.149c0,0.05-0.003,0.1-0.009,0.149h-3.403
			c0.012,0.162,0.054,0.309,0.126,0.443c0.071,0.134,0.166,0.249,0.284,0.345c0.118,0.096,0.252,0.173,0.401,0.228
			c0.149,0.056,0.305,0.084,0.466,0.084c0.28,0,0.516-0.051,0.709-0.154c0.193-0.103,0.351-0.244,0.476-0.424l0.746,0.597
			c-0.441,0.597-1.081,0.895-1.921,0.895c-0.348,0-0.668-0.054-0.96-0.163c-0.292-0.109-0.546-0.262-0.76-0.461
			c-0.214-0.199-0.382-0.443-0.503-0.732c-0.121-0.289-0.182-0.617-0.182-0.984c0-0.36,0.061-0.688,0.182-0.984
			c0.121-0.295,0.287-0.547,0.499-0.755c0.211-0.208,0.461-0.37,0.751-0.485c0.289-0.115,0.601-0.172,0.937-0.172
			c0.311,0,0.598,0.051,0.862,0.154c0.264,0.103,0.493,0.255,0.685,0.457c0.193,0.202,0.343,0.454,0.452,0.755
			C129.535,43.52,129.59,43.873,129.59,44.277z M128.471,43.773c0-0.143-0.02-0.28-0.061-0.41c-0.04-0.131-0.104-0.245-0.191-0.345
			c-0.087-0.099-0.197-0.179-0.331-0.238c-0.134-0.059-0.291-0.089-0.471-0.089c-0.336,0-0.62,0.101-0.853,0.303
			c-0.233,0.202-0.362,0.461-0.387,0.778H128.471z"/>
	</g>
	<path fill="#FFFFFF" d="M35.63,33.242h-9.361V9.84h-0.095l-5.97,23.402h-6.4L7.642,9.84H7.546v23.402H0V0.479h13.134l4.681,17.384
		h0.095L22.4,0.479h13.23V33.242z"/>
	<path fill="#FFFFFF" d="M67.345,0.479h12.084c4.728,0,8.502,0.621,12.036,4.012c3.439,3.248,5.014,7.737,5.014,12.418
		c0,4.298-1.528,8.788-4.537,11.893c-3.248,3.391-7.308,4.441-11.845,4.441H67.345V0.479z M78.856,25.696
		c1.337,0,2.196,0.095,3.439-0.573c0.907-0.526,1.623-1.242,2.148-2.15c1.147-1.911,1.529-4.107,1.529-6.304
		s-0.621-5.063-2.006-6.877c-1.576-1.959-3.104-1.863-5.396-1.863h-1.147v17.768H78.856z"/>
	<path fill="#FFFFFF" d="M130,16.956c0,9.313-5.732,16.764-15.666,16.764c-9.935,0-15.667-7.45-15.667-16.764
		C98.668,7.165,104.351,0,114.334,0C124.316,0,130,7.165,130,16.956z M109.414,17.004c0,3.152,0.334,9.218,4.92,9.218
		c4.585,0,4.919-6.066,4.919-9.218c0-3.2-0.477-9.6-4.919-9.6C109.892,7.404,109.414,13.804,109.414,17.004z"/>
	<path fill="#D8BB31" d="M37.49,16.589c0-7.722,6.227-13.001,13.998-13.001c7.77,0,13.997,5.28,13.997,13.001
		c0,8.169-6.027,13.449-13.997,13.449C43.518,30.038,37.49,24.757,37.49,16.589z"/>
</g>
</svg>
